module gitlab.com/grzesiek/gitlab-auth-service

go 1.21.0

require (
	github.com/stretchr/testify v1.8.4
	golang.org/x/exp v0.0.0-20230811145659-89c5cff77bcb
)

require (
	github.com/davecgh/go-spew v1.1.1 // indirect
	github.com/pmezard/go-difflib v1.0.0 // indirect
	gopkg.in/yaml.v3 v3.0.1 // indirect
)
